-- Merging decision tree log ---
manifest
ADDED from D:\Paulpay\EBS\AndroidManifest.xml:2:1-58:12
INJECTED from D:\Paulpay\EBS\AndroidManifest.xml:2:1-58:12
INJECTED from D:\Paulpay\EBS\AndroidManifest.xml:2:1-58:12
INJECTED from D:\Paulpay\EBS\AndroidManifest.xml:2:1-58:12
INJECTED from D:\Paulpay\EBS\AndroidManifest.xml:2:1-58:12
INJECTED from D:\Paulpay\EBS\AndroidManifest.xml:2:1-58:12
INJECTED from D:\Paulpay\EBS\AndroidManifest.xml:2:1-58:12
	package
		ADDED from D:\Paulpay\EBS\AndroidManifest.xml:3:5-34
		INJECTED from D:\Paulpay\EBS\AndroidManifest.xml
		INJECTED from D:\Paulpay\EBS\AndroidManifest.xml
	android:versionName
		ADDED from D:\Paulpay\EBS\AndroidManifest.xml:5:5-30
		INJECTED from D:\Paulpay\EBS\AndroidManifest.xml
		INJECTED from D:\Paulpay\EBS\AndroidManifest.xml
	xmlns:android
		ADDED from D:\Paulpay\EBS\AndroidManifest.xml:2:11-69
	android:versionCode
		ADDED from D:\Paulpay\EBS\AndroidManifest.xml:4:5-28
		INJECTED from D:\Paulpay\EBS\AndroidManifest.xml
		INJECTED from D:\Paulpay\EBS\AndroidManifest.xml
uses-sdk
ADDED from D:\Paulpay\EBS\AndroidManifest.xml:7:5-9:41
	android:targetSdkVersion
		ADDED from D:\Paulpay\EBS\AndroidManifest.xml:9:9-38
	android:minSdkVersion
		ADDED from D:\Paulpay\EBS\AndroidManifest.xml:8:9-35
uses-permission#android.permission.INTERNET
ADDED from D:\Paulpay\EBS\AndroidManifest.xml:11:5-67
	android:name
		ADDED from D:\Paulpay\EBS\AndroidManifest.xml:11:22-64
uses-permission#android.permission.ACCESS_NETWORK_STATE
ADDED from D:\Paulpay\EBS\AndroidManifest.xml:12:5-79
	android:name
		ADDED from D:\Paulpay\EBS\AndroidManifest.xml:12:22-76
uses-permission#android.permission.WRITE_EXTERNAL_STORAGE
ADDED from D:\Paulpay\EBS\AndroidManifest.xml:14:5-81
	android:name
		ADDED from D:\Paulpay\EBS\AndroidManifest.xml:14:22-78
uses-permission#android.permission.READ_PHONE_STATE
ADDED from D:\Paulpay\EBS\AndroidManifest.xml:15:5-75
	android:name
		ADDED from D:\Paulpay\EBS\AndroidManifest.xml:15:22-72
uses-permission#android.permission.READ_EXTERNAL_STORAGE
ADDED from D:\Paulpay\EBS\AndroidManifest.xml:16:5-80
	android:name
		ADDED from D:\Paulpay\EBS\AndroidManifest.xml:16:22-77
application
ADDED from D:\Paulpay\EBS\AndroidManifest.xml:20:5-56:19
	android:label
		ADDED from D:\Paulpay\EBS\AndroidManifest.xml:23:9-41
	android:icon
		ADDED from D:\Paulpay\EBS\AndroidManifest.xml:22:9-45
	android:allowBackup
		ADDED from D:\Paulpay\EBS\AndroidManifest.xml:21:9-35
activity#com.ebs.android.sdk.PaymentDetailActivity
ADDED from D:\Paulpay\EBS\AndroidManifest.xml:25:9-29:20
	android:screenOrientation
		ADDED from D:\Paulpay\EBS\AndroidManifest.xml:28:13-49
	android:label
		ADDED from D:\Paulpay\EBS\AndroidManifest.xml:27:13-66
	android:name
		ADDED from D:\Paulpay\EBS\AndroidManifest.xml:26:13-69
activity#com.ebs.android.sdk.PaymentActivity
ADDED from D:\Paulpay\EBS\AndroidManifest.xml:31:9-36:20
	android:screenOrientation
		ADDED from D:\Paulpay\EBS\AndroidManifest.xml:34:13-49
	android:label
		ADDED from D:\Paulpay\EBS\AndroidManifest.xml:33:13-59
	android:windowSoftInputMode
		ADDED from D:\Paulpay\EBS\AndroidManifest.xml:35:13-55
	android:name
		ADDED from D:\Paulpay\EBS\AndroidManifest.xml:32:13-63
activity#com.ebs.android.sdk.WebViewActivity
ADDED from D:\Paulpay\EBS\AndroidManifest.xml:37:9-42:20
	android:screenOrientation
		ADDED from D:\Paulpay\EBS\AndroidManifest.xml:40:13-49
	android:label
		ADDED from D:\Paulpay\EBS\AndroidManifest.xml:39:13-59
	android:windowSoftInputMode
		ADDED from D:\Paulpay\EBS\AndroidManifest.xml:41:13-55
	android:name
		ADDED from D:\Paulpay\EBS\AndroidManifest.xml:38:13-63
activity#com.ebs.android.sdk.EBSHomeConfigurableActivity
ADDED from D:\Paulpay\EBS\AndroidManifest.xml:43:9-47:20
	android:screenOrientation
		ADDED from D:\Paulpay\EBS\AndroidManifest.xml:46:13-49
	android:label
		ADDED from D:\Paulpay\EBS\AndroidManifest.xml:45:13-77
	android:name
		ADDED from D:\Paulpay\EBS\AndroidManifest.xml:44:13-75
activity#com.ebs.android.sdk.PaymentFailureActivity
ADDED from D:\Paulpay\EBS\AndroidManifest.xml:48:9-51:20
	android:label
		ADDED from D:\Paulpay\EBS\AndroidManifest.xml:50:13-67
	android:name
		ADDED from D:\Paulpay\EBS\AndroidManifest.xml:49:13-70
activity#com.ebs.android.sdk.IdleTimeOut
ADDED from D:\Paulpay\EBS\AndroidManifest.xml:52:9-55:20
	android:label
		ADDED from D:\Paulpay\EBS\AndroidManifest.xml:54:13-65
	android:name
		ADDED from D:\Paulpay\EBS\AndroidManifest.xml:53:13-59
